:020000040000FA
:04001C00FFFFFFFFE4
:10002000FFFFFFFFFFFFFFFFFFFFFFFFFFFFFFFFE0
:10003000FFFFFFFFFFFFFFFFFFFFFFFFFFFFFFFFD0
:10004000FFFFFFFFFFFFFFFFFFFFFFFFFFFFFFFFC0
:10005000FFFFFFFFFFFFFFFFFFFFFFFFFFFFFFFFB0
:10006000FFFFFFFFFFFFFFFFFFFFFFFFFFFFFFFFA0
:0A007000FFFFFFFFFFFFFFFFFFFF90
:0605000001C4E8FF120037
:10200000007A2000DE2000702100162200B222009B
:102010004E23008A23001A2000004AEF16F0120017
:10202000E8CFE5FFD8CFE5FFE0CFE5FFF3CFE5FF51
:10203000F4CFE5FFE9CFE5FFEACFE5FFFACFE5FF13
:10204000FBCFE5FFA1AA06D00FEC00F0689C6890DA
:10205000A19A6A6AE4CFFBFFE4CFFAFFE4CFEAFF7C
:10206000E4CFE9FFE4CFF4FFE4CFF3FFE4CFE0FFF8
:10207000E4CFD8FFE4CFE8FF100012010002FF0018
:10208000FF08D804AAFE000101020303090212009E
:10209000010104C0000904000000FFFFFF04090261
:1020A0002000010205C0000904000002FFFFFF0537
:1020B00007050102400000070582024000000902F6
:1020C0002000010304C0000904000002FFFFFF0616
:1020D00007050102400000070582024000008C2035
:1020E000009E2000BE2000000403090426034A00CD
:1020F000650061006E002D005000690065007200EF
:102100007200650020004D0041004E0044004F0069
:102110004E002203500069006E00670075006900E0
:102120006E006F002000500072006F006A006500B2
:10213000630074000403310010034400650066006E
:10214000610075006C0074000C0346006C006100B7
:10215000730068001C03500069006E006700750082
:1021600069006E006F0020006100700070006C005C
:10217000E82000EC20001221003421003821004822
:102180002100542100002E00001E20001E20001EF1
:1021900020001E20001E20001E20001E20001E20E9
:1021A000001E20001E20001E20001E20001E2000F9
:1021B0001E20001E20002E00003A00004200001EDB
:1021C00020001E20001E20001E20001E20001E20B9
:1021D000001E20001E20001E20001E20001E2000C9
:1021E0001E20001E20002E0000582C00BA2C001EBD
:1021F00020001E20001E20001E20001E20001E2089
:10220000001E20001E20001E20001E20001E200098
:102210001E20001E2000862100862100B62100E637
:1022200021003200001E20001E20001E20001E2063
:10223000001E20001E20001E20001E20001E200068
:102240001E20001E20001E20001E20001E20001E3A
:1022500020003200001E20004600001E20001E202C
:10226000001E20001E20001E20001E20001E200038
:102270001E20001E20001E20001E20001E20001E0A
:1022800020003200001E2000722A001E20001E20A6
:10229000001E20001E20001E20001E20001E200008
:1022A0001E20001E20001E20001E20001E20001EDA
:1022B00020002222002222005222008222002E0030
:1022C000001E20001E20001E20001E20001E2000D8
:1022D0001E20001E20001E20001E20001E20001EAA
:1022E00020001E20001E20001E20001E20002E00A8
:1022F000003E00001E20001E20001E20001E2000A8
:102300001E20001E20001E20001E20001E20001E79
:1023100020001E20001E20001E20001E20002E0077
:10232000000E29001E20001E20001E20001E20007E
:102330001E20001E20001E20001E20001E20001E49
:1023400020001E20001E20001E20001E2000BE2295
:1023500000BE2200EE22001E23003600001E2000D8
:102360001E20001E20001E20001E20001E20001E19
:1023700020001E20001E20001E20001E20001E2007
:10238000001E20001E20001E20005A23005A230099
:102390005A23005A23000102040810204080408084
:1023A00001020401020408200000000000000000F7
:1023B00001010101010202020202D9CFE5FFE1CFD2
:1023C000D9FF00C0E5FF01C0E5FF02C0E5FF03C083
:1023D000E5FF04C0E5FF05C0E5FF06C0E5FF020E0E
:1023E000DBCF00F0030EDBCF01F0040EDBCF02F0F9
:1023F000050EDBCF03F0A80E0024046E230E01208F
:10240000056E066A01BE0668000E062204C0F6FFCD
:1024100005C0F7FF06C0F8FF0900F5CF04F0030E72
:10242000045CD8B0B4D007C0E5FF08C0E5FF086A77
:1024300004340836E8340836FC0B076E000EFB6ED9
:10244000240EFA6E5C0E07260850FA22D8B0FB2A3A
:102450000750E4CF08F0E4CF07F0F96E34EF12F044
:1024600066EF12F098EF12F00250031017E0960E8C
:102470000024046E230E0120056E066A01BE066864
:10248000000E062204C0F6FF05C0F7FF06C0F8FFE5
:102490000900F5CF04F00450931279D0960E002471
:1024A000046E230E0120056E066A01BE0668000E4A
:1024B000062204C0F6FF05C0F7FF06C0F8FF0900BA
:1024C000F5CF04F00450FF08931661D002500310BA
:1024D00017E0960E0024046E230E0120056E066A96
:1024E00001BE0668000E062204C0F6FF05C0F7FF15
:1024F00006C0F8FF0900F5CF04F00450941247D04D
:10250000960E0024046E230E0120056E066A01BE9D
:102510000668000E062204C0F6FF05C0F7FF06C0DD
:10252000F8FF0900F5CF04F00450FF0894162FD0EF
:102530000250031017E0960E0024026E230E0120B5
:10254000036E046A01BE0468000E042202C0F6FF96
:1025500003C0F7FF04C0F8FF0900F5CF02F00250F6
:10256000921215D0026A01BE0268960E0026230E52
:102570000122000E022200C0F6FF01C0F7FF02C0D8
:10258000F8FF0900F5CF00F00050FF089216E4CFE5
:1025900006F0E4CF05F0E4CF04F0E4CF03F0E4CF9D
:1025A00002F0E4CF01F0E4CF00F0E4CFD9FF120055
:1025B000D9CFE5FFE1CFD9FF00C0E5FF01C0E5FFBE
:1025C00002C0E5FF03C0E5FF04C0E5FF05C0E5FF6D
:1025D00006C0E5FF020EDBCF00F0030EDBCF01F0FB
:1025E000040EDBCF02F0050EDBCF03F0A80E0024B3
:1025F000046E230E0120056E066A01BE0668000EF9
:10260000062204C0F6FF05C0F7FF06C0F8FF090068
:10261000F5CF04F0030E045CD8B0B4D007C0E5FFDA
:1026200008C0E5FF086A04340836E8340836FC0BB5
:10263000076E000EFB6E260EFA6E520E072608502D
:10264000FA22D8B0FB2A0750E4CF08F0E4CF07F015
:10265000F96E2FEF13F061EF13F093EF13F00250C8
:10266000031017E0960E0024046E230E0120056E61
:10267000066A01BE0668000E062204C0F6FF05C009
:10268000F7FF06C0F8FF0900F5CF04F004508112EF
:1026900079D0960E0024046E230E0120056E066A82
:1026A00001BE0668000E062204C0F6FF05C0F7FF53
:1026B00006C0F8FF0900F5CF04F00450FF088116AA
:1026C00061D00250031017E0960E0024046E230E12
:1026D0000120056E066A01BE0668000E062204C0CF
:1026E000F6FF05C0F7FF06C0F8FF0900F5CF04F0BC
:1026F0000450821247D0960E0024046E230E01204F
:10270000056E066A01BE0668000E062204C0F6FFCA
:1027100005C0F7FF06C0F8FF0900F5CF04F004502C
:10272000FF0882162FD00250031017E0960E0024E7
:10273000026E230E0120036E046A01BE0468000EBF
:10274000042202C0F6FF03C0F7FF04C0F8FF09002F
:10275000F5CF02F00250801215D0026A01BE026865
:10276000960E0026230E0122000E022200C0F6FF64
:1027700001C0F7FF02C0F8FF0900F5CF00F00050DC
:10278000FF088016E4CF06F0E4CF05F0E4CF04F0B4
:10279000E4CF03F0E4CF02F0E4CF01F0E4CF00F0A7
:1027A000E4CFD9FF1200D9CFE5FFE1CFD9FF00C0B8
:1027B000E5FF01C0E5FF02C0E5FF03C0E5FF04C07F
:1027C000E5FF020EDBCF00F0030EDBCF01F0A80E19
:1027D0000024026E230E0120036E046A01BE046809
:1027E000000E042202C0F6FF03C0F7FF04C0F8FF8A
:1027F0000900F5CF02F0030E025CD8B079D005C015
:10280000E5FF06C0E5FF066A02340636E834063600
:10281000FC0B056E000EFB6E280EFA6E340E0526BC
:102820000650FA22D8B0FB2A0550E4CF06F0E4CFD8
:1028300005F0F96E20EF14F03EEF14F05CEF14F0A9
:10284000960E0024026E230E0120036E046A01BE60
:102850000468000E042202C0F6FF03C0F7FF04C0A4
:10286000F8FF0900F5CF02F081500216025003E094
:10287000F36A010E3FD0F36AE86A3CD0960E00245A
:10288000026E230E0120036E046A01BE0468000E6E
:10289000042202C0F6FF03C0F7FF04C0F8FF0900DE
:1028A000F5CF02F082500216025003E0F36A010EE7
:1028B00021D0F36AE86A1ED0026A01BE0268960E51
:1028C0000026230E0122000E022200C0F6FF01C0E6
:1028D000F7FF02C0F8FF0900F5CF00F080500016A6
:1028E000005003E0F36A010E05D0F36AE86A02D0F3
:1028F000F36AE86AE4CF04F0E4CF03F0E4CF02F037
:10290000E4CF01F0E4CF00F0E4CFD9FF120000C023
:10291000E5FF01C0E5FF02C0E5FF03C0E5FF010ED2
:102920000401095DD8A047D0400E095DD8B043D05E
:10293000006A04010951005C32E2400E0024016E7D
:10294000026A060E022201C0E9FF02C0EAFFEFCFD1
:1029500001F0020147513F0A04E002014729026EDB
:1029600002D0010E026E0201485102180FE047C268
:1029700002F00201472B036A000E0226020E032218
:1029800002C0E9FF03C0EAFF01C0EFFF02014751A7
:10299000400A03E1010E0201476F002ACAD7400E28
:1029A0000401096F08BD03D0C80E086F0DD0880E52
:1029B0000401086F09D0400E0401096F400E0A6F30
:1029C000060E0B6F840E086FE4CF03F0E4CF02F025
:1029D000E4CF01F0E4CF00F01200AC0EF66E2C0E46
:1029E000F76E000EF86E0900F550056E0900F550FF
:1029F000066E055002E106503BE00900F550006EFE
:102A00000900F550016E0900F550026E0900090039
:102A1000F550E96E0900F550EA6E09000900090059
:102A2000F550036E0900F550046E09000900F6CF59
:102A300007F0F7CF08F0F8CF09F000C0F6FF01C0AB
:102A4000F7FF02C0F8FF035002E1045007E009005D
:102A5000F550EE6E0306F8E20406F9D707C0F6FF5C
:102A600008C0F7FF09C0F8FF0506C4E20606C5D78F
:102A7000120002014351441103E1020146512CE1CD
:102A8000000E0201445D02E1400E435DD870020178
:102A9000466B4637020143510401156F800EE56E07
:102AA000020EE56E430EE56EE56A400EE56E800EA1
:102AB000E56E020EE56E400EE56E020EE56E15EC5B
:102AC00000F0090EE126040114BD03D0C80E146FF6
:102AD00003D0880E0401146F1200000E0201445D41
:102AE00002E1400E435DD8700201466B4637020199
:102AF00043510401156F000E166F060E176F800EFE
:102B0000E56E020EE56E430EE56EE56A400EE56E7B
:102B1000800EE56E020EE56E400EE56E020EE56E6D
:102B200015EC00F0090EE126040114BD03D0C80E17
:102B3000146F03D0880E0401146F120000C0E5FF6B
:102B400019EC16F0006E00501EE0C6EC15F0020104
:102B5000496F410A0FE002014951450A14E1E56A53
:102B6000010EE56E000EE56AE56AD8EC12F0040E7F
:102B7000E12609D0000EE56AE56AE56AE56AD8EC67
:102B800012F0040EE126E4CF00F0120000C0E5FFD1
:102B900001C0E5FF02C0E5FF006A32502C100010B2
:102BA00015E048C201F00201482B026A000E01261E
:102BB000020E022201C0E9FF02C0EAFFEFCF00F0DF
:102BC0004851400A03E1010E0201486F0050E4CF72
:102BD00002F0E4CF01F0E4CF00F01200D9CFE5FF1E
:102BE000E1CFD9FF020EDBCF40F2030EDBCF41F283
:102BF000040EDBCF42F2050EDBCF43F2060EDBCF35
:102C000044F26DEC15F0E4CFD9FF1200000EE56A36
:102C1000E56AE56AE56ADDEC11F0040EE126000ED6
:102C2000E56AE56AE56AE56AD8EC12F0040EE12689
:102C3000120000C0E5FF006A020147510201481975
:102C400001E1002A0050D880E866D890006A00367A
:102C50000050E4CF00F01200400E0401096F400E56
:102C60000A6F060E0B6F880E086F1C0E716E010E38
:102C70000201476F0201486F12009D6AA06A0F0EA1
:102C8000C16EA08AC00EF26E06EC16F09EEC15F036
:102C9000FDD7120011EEFFF021EEFFF0F86AA68ECC
:102CA000A69CEDEC14F03DEC16F0FFD70100C62C0D
:102CB00000004502000001000000480E0401146FEE
:082CC0001A0E726E12000000F2
:10400000E8CFE5FFD8CFE5FFE0CFE5FFF3CFE5FF51
:10401000F4CFE5FFE9CFE5FFEACFE5FFFACFE5FF13
:10402000FBCFE5FFE4CFFBFFE4CFFAFFE4CFEAFFED
:10403000E4CFE9FFE4CFF4FFE4CFF3FFE4CFE0FF08
:0A404000E4CFD8FFE4CFE8FF100042
:00000001FF
